 =0,190355237349002
e=0,09965652455667
t=0,0733355687324418
a=0,0655817452444201
o=0,062772439266349
i=0,056514480000417
h=0,0539292930521363
n=0,0538441625679524
s=0,0507534047850282
r=0,046378740312064
d=0,0346776421288181
l=0,0319743149167719
u=0,0245210541586242
m=0,0218941706466616
w=0,0209334123251568
c=0,0200195626377941
y=0,0174951831782163
f=0,0170243594799744
g=0,0152036095325294
p=0,0130822968552104
b=0,0120120850540405
v=0,00820379890442279
k=0,00674268181873461
x=0,00105110087614904
j=0,000972919819245396
q=0,000774861141756155
z=0,000295350659413781