P_0=0,190355237349002
P_1=0,09965652455667
P_2=0,0733355687324418
P_3=0,0655817452444201
P_4=0,062772439266349
P_5=0,056514480000417
P_6=0,0539292930521363
P_7=0,0538441625679524
P_8=0,0507534047850282
P_9=0,046378740312064
P_10=0,0346776421288181
P_11=0,0319743149167719
P_12=0,0245210541586241
P_13=0,0218941706466616
P_14=0,0209334123251568
P_15=0,0200195626377941
P_16=0,0174951831782163
P_17=0,0170243594799744
P_18=0,0152036095325294
P_19=0,0130822968552104
P_20=0,0120120850540405
P_21=0,00820379890442279
P_22=0,00674268181873461
P_23=0,00105110087614904
P_24=0,000972919819245397
P_25=0,000774861141756155
P_26=0,000295350659413781