 |0,190510431968064
e|0,0995180229704348
t|0,0733688220090165
a|0,065462659911864
o|0,0630917169141154
i|0,0566019623221114
n|0,0537854486769631
h|0,053578964718412
s|0,0505940036333932
r|0,0465204736089955
d|0,0345281026478851
l|0,0319416193776139
u|0,0246295514769942
m|0,0220177105276027
w|0,0208856712811605
c|0,0201176958563741
y|0,0176779248724418
f|0,0169570422803074
g|0,0150262361415755
p|0,013120787681964
b|0,0120213511658193
v|0,00828109349557418
k|0,00666725834584614
x|0,00104328736952116
j|0,000985326960103314
q|0,000791521841112405
z|0,00027531194473475